[gd_scene load_steps=5 format=2]

[ext_resource path="res://objects/CutParticleEffect.gd" type="Script" id=1]

[sub_resource type="SpatialMaterial" id=2]
flags_transparent = true
albedo_color = Color( 0.0156863, 0.254902, 0.0705882, 0.611765 )
emission_enabled = true
emission = Color( 0.00392157, 0.27451, 0.0313726, 1 )
emission_energy = 1.95
emission_operator = 0
emission_on_uv2 = false

[sub_resource type="SphereMesh" id=3]
material = SubResource( 2 )
radial_segments = 6
rings = 6

[sub_resource type="Curve" id=4]
_data = [ Vector2( 0, 1 ), 0.0, 0.105242, 0, 0, Vector2( 0.568093, 1 ), 0.0, 0.0, 0, 0, Vector2( 1, 0 ), -7.78788, 0.0, 0, 0 ]

[node name="CutParticleEffect" type="CPUParticles"]
cast_shadow = 0
generate_lightmap = false
emitting = false
amount = 4
lifetime = 0.5
one_shot = true
explosiveness = 0.8
randomness = 0.57
lifetime_randomness = 0.28
mesh = SubResource( 3 )
spread = 180.0
gravity = Vector3( 0, -9, 0 )
initial_velocity = 3.5
initial_velocity_random = 0.21
scale_amount = 0.06
scale_amount_random = 0.02
scale_amount_curve = SubResource( 4 )
script = ExtResource( 1 )

[node name="KillTimer" type="Timer" parent="."]
wait_time = 0.5
one_shot = true
autostart = true

[node name="EmitTimer" type="Timer" parent="."]
wait_time = 0.01
one_shot = true
autostart = true

[connection signal="timeout" from="KillTimer" to="." method="_on_KillTimer_timeout"]
[connection signal="timeout" from="EmitTimer" to="." method="_on_EmitTimer_timeout"]
