[gd_scene load_steps=4 format=2]

[ext_resource path="res://icon.png" type="Texture" id=1]
[ext_resource path="res://objects/UI/LoadCard.gd" type="Script" id=2]

[sub_resource type="StyleBoxFlat" id=1]
bg_color = Color( 0.109804, 0.109804, 0.109804, 1 )
border_width_left = 5
border_width_top = 5
border_width_right = 5
border_width_bottom = 5
border_color = Color( 1, 1, 1, 1 )
border_blend = true

[node name="LoadCard" type="Panel"]
margin_right = 321.0
margin_bottom = 100.0
rect_min_size = Vector2( 100, 100 )
size_flags_horizontal = 3
custom_styles/panel = SubResource( 1 )
script = ExtResource( 2 )
__meta__ = {
"_edit_use_anchors_": false
}

[node name="G" type="GridContainer" parent="."]
anchor_right = 1.0
anchor_bottom = 1.0
margin_left = -0.8909
margin_right = -0.8909
columns = 2
__meta__ = {
"_edit_use_anchors_": false
}

[node name="Panel2" type="Panel" parent="G"]
self_modulate = Color( 1, 1, 1, 0 )
margin_right = 100.0
margin_bottom = 100.0
rect_min_size = Vector2( 100, 100 )

[node name="PrevImage" type="TextureRect" parent="G/Panel2"]
anchor_right = 1.0
anchor_bottom = 1.0
margin_left = 5.0
margin_top = 5.0
margin_right = -5.37457
margin_bottom = -5.0
texture = ExtResource( 1 )
expand = true
__meta__ = {
"_edit_use_anchors_": false
}

[node name="Panel" type="Panel" parent="G"]
self_modulate = Color( 1, 1, 1, 0 )
margin_left = 104.0
margin_right = 204.0
margin_bottom = 100.0
rect_min_size = Vector2( 100, 0 )

[node name="GGG" type="GridContainer" parent="G/Panel"]
anchor_right = 1.0
anchor_bottom = 1.0
margin_left = 15.0
margin_top = 15.0
margin_right = -15.0
margin_bottom = -15.0
custom_constants/vseparation = 10
custom_constants/hseparation = 10
__meta__ = {
"_edit_use_anchors_": false
}

[node name="Name" type="Label" parent="G/Panel/GGG"]
margin_right = 36.0
margin_bottom = 14.0
text = "name"
valign = 1

[node name="Date" type="Label" parent="G/Panel/GGG"]
visible = false
margin_top = 24.0
margin_right = 112.0
margin_bottom = 38.0
text = "23.05.2021 10:51"

[node name="Button" type="Button" parent="."]
self_modulate = Color( 1, 1, 1, 0 )
anchor_right = 1.0
anchor_bottom = 1.0
__meta__ = {
"_edit_use_anchors_": false
}
